<?xml version="1.0" encoding="UTF-8" standalone="no"?>
<graphml xmlns="http://graphml.graphdrawing.org/xmlns" xmlns:java="http://www.yworks.com/xml/yfiles-common/1.0/java" xmlns:sys="http://www.yworks.com/xml/yfiles-common/markup/primitives/2.0" xmlns:x="http://www.yworks.com/xml/yfiles-common/markup/2.0" xmlns:xsi="http://www.w3.org/2001/XMLSchema-instance" xmlns:y="http://www.yworks.com/xml/graphml" xmlns:yed="http://www.yworks.com/xml/yed/3" xsi:schemaLocation="http://graphml.graphdrawing.org/xmlns http://www.yworks.com/xml/schema/graphml/1.1/ygraphml.xsd">
  <!--Created by yEd 3.20.1-->
  <key attr.name="Beschreibung" attr.type="string" for="graph" id="d0"/>
  <key for="port" id="d1" yfiles.type="portgraphics"/>
  <key for="port" id="d2" yfiles.type="portgeometry"/>
  <key for="port" id="d3" yfiles.type="portuserdata"/>
  <key attr.name="url" attr.type="string" for="node" id="d4"/>
  <key attr.name="description" attr.type="string" for="node" id="d5"/>
  <key for="node" id="d6" yfiles.type="nodegraphics"/>
  <key for="graphml" id="d7" yfiles.type="resources"/>
  <key attr.name="url" attr.type="string" for="edge" id="d8"/>
  <key attr.name="description" attr.type="string" for="edge" id="d9"/>
  <key for="edge" id="d10" yfiles.type="edgegraphics"/>
  <graph edgedefault="directed" id="G">
    <data key="d0" xml:space="preserve"/>
    <node id="n0" yfiles.foldertype="group">
      <data key="d4" xml:space="preserve"/>
      <data key="d6">
        <y:ProxyAutoBoundsNode>
          <y:Realizers active="0">
            <y:GroupNode>
              <y:Geometry height="776.0607228241972" width="962.889019954629" x="-2748.71703125" y="-1070.317127025691"/>
              <y:Fill color="#F5F5F5" transparent="false"/>
              <y:BorderStyle color="#000000" type="dashed" width="1.0"/>
              <y:NodeLabel alignment="right" autoSizePolicy="node_width" backgroundColor="#EBEBEB" borderDistance="0.0" fontFamily="Dialog" fontSize="15" fontStyle="plain" hasLineColor="false" height="22.37646484375" horizontalTextPosition="center" iconTextGap="4" modelName="internal" modelPosition="t" textColor="#000000" verticalTextPosition="bottom" visible="true" width="962.889019954629" x="0.0" xml:space="preserve" y="0.0">Serverraum</y:NodeLabel>
              <y:Shape type="roundrectangle"/>
              <y:State closed="false" closedHeight="50.0" closedWidth="50.0" innerGraphDisplayEnabled="false"/>
              <y:Insets bottom="15" bottomF="15.0" left="15" leftF="15.0" right="15" rightF="15.0" top="15" topF="15.0"/>
              <y:BorderInsets bottom="26" bottomF="25.554626802451367" left="64" leftF="63.71703125000022" right="47" rightF="47.05808413363138" top="42" topF="41.899737385511116"/>
            </y:GroupNode>
            <y:GroupNode>
              <y:Geometry height="50.0" width="50.0" x="-2748.71703125" y="-1070.317127025691"/>
              <y:Fill color="#F5F5F5" transparent="false"/>
              <y:BorderStyle color="#000000" type="dashed" width="1.0"/>
              <y:NodeLabel alignment="right" autoSizePolicy="node_width" backgroundColor="#EBEBEB" borderDistance="0.0" fontFamily="Dialog" fontSize="15" fontStyle="plain" hasLineColor="false" height="22.37646484375" horizontalTextPosition="center" iconTextGap="4" modelName="internal" modelPosition="t" textColor="#000000" verticalTextPosition="bottom" visible="true" width="50.0" x="0.0" xml:space="preserve" y="0.0">1</y:NodeLabel>
              <y:Shape type="roundrectangle"/>
              <y:State closed="true" closedHeight="50.0" closedWidth="50.0" innerGraphDisplayEnabled="false"/>
              <y:Insets bottom="15" bottomF="15.0" left="15" leftF="15.0" right="15" rightF="15.0" top="15" topF="15.0"/>
              <y:BorderInsets bottom="0" bottomF="0.0" left="0" leftF="0.0" right="20" rightF="20.0" top="0" topF="0.0"/>
            </y:GroupNode>
          </y:Realizers>
        </y:ProxyAutoBoundsNode>
      </data>
      <graph edgedefault="directed" id="n0:">
        <node id="n0::n0">
          <data key="d6">
            <y:SVGNode>
              <y:Geometry height="34.58399963378906" width="102.15814971923828" x="-2086.751276398241" y="-736.1896673691416"/>
              <y:Fill color="#CCCCFF" transparent="false"/>
              <y:BorderStyle color="#000000" type="line" width="1.0"/>
              <y:NodeLabel alignment="center" autoSizePolicy="content" fontFamily="Dialog" fontSize="12" fontStyle="plain" hasBackgroundColor="false" hasLineColor="false" height="18.701171875" horizontalTextPosition="center" iconTextGap="4" modelName="custom" textColor="#000000" verticalTextPosition="bottom" visible="true" width="132.70703125" x="106.15814971923828" xml:space="preserve" y="-22.701171875">UniFi US-16-XG 16 Port<y:LabelModel><y:SmartNodeLabelModel distance="4.0"/></y:LabelModel><y:ModelParameter><y:SmartNodeLabelModelParameter labelRatioX="-0.5" labelRatioY="0.5" nodeRatioX="0.5" nodeRatioY="-0.5" offsetX="4.0" offsetY="-4.0" upX="0.0" upY="-1.0"/></y:ModelParameter></y:NodeLabel>
              <y:SVGNodeProperties usingVisualBounds="true"/>
              <y:SVGModel svgBoundsPolicy="0">
                <y:SVGContent refid="1"/>
              </y:SVGModel>
            </y:SVGNode>
          </data>
        </node>
        <node id="n0::n1">
          <data key="d6">
            <y:SVGNode>
              <y:Geometry height="120.0" width="100.0" x="-2084.5931266790026" y="-991.0409247964299"/>
              <y:Fill color="#CCCCFF" transparent="false"/>
              <y:BorderStyle color="#000000" type="line" width="1.0"/>
              <y:NodeLabel alignment="center" autoSizePolicy="content" fontFamily="Dialog" fontSize="12" fontStyle="plain" hasBackgroundColor="false" hasLineColor="false" height="18.701171875" horizontalTextPosition="center" iconTextGap="4" modelName="custom" textColor="#000000" verticalTextPosition="bottom" visible="true" width="101.400390625" x="-0.7001953124995453" xml:space="preserve" y="64.15581734543264">Datenspeicherung<y:LabelModel><y:SmartNodeLabelModel distance="4.0"/></y:LabelModel><y:ModelParameter><y:SmartNodeLabelModelParameter labelRatioX="0.0" labelRatioY="0.5" nodeRatioX="1.9984014443252818E-15" nodeRatioY="0.19047491017027218" offsetX="0.0" offsetY="0.0" upX="0.0" upY="-1.0"/></y:ModelParameter></y:NodeLabel>
              <y:SVGNodeProperties usingVisualBounds="true"/>
              <y:SVGModel svgBoundsPolicy="0">
                <y:SVGContent refid="2"/>
              </y:SVGModel>
            </y:SVGNode>
          </data>
        </node>
        <node id="n0::n2">
          <data key="d6">
            <y:SVGNode>
              <y:Geometry height="144.44963835007275" width="186.86758247714442" x="-2445.2216117498047" y="-721.7022678768716"/>
              <y:Fill color="#CCCCFF" transparent="false"/>
              <y:BorderStyle color="#000000" type="line" width="1.0"/>
              <y:NodeLabel alignment="center" autoSizePolicy="content" fontFamily="Dialog" fontSize="12" fontStyle="plain" hasBackgroundColor="false" hasLineColor="false" height="33.40234375" horizontalTextPosition="center" iconTextGap="4" modelName="custom" textColor="#000000" verticalTextPosition="bottom" visible="true" width="102.044921875" x="198.69367652728852" xml:space="preserve" y="76.46396835140285">Applikationsserver
Citrix Hypervisor<y:LabelModel><y:SmartNodeLabelModel distance="4.0"/></y:LabelModel><y:ModelParameter><y:SmartNodeLabelModelParameter labelRatioX="-0.5" labelRatioY="0.5" nodeRatioX="0.5" nodeRatioY="0.26058558094235285" offsetX="11.826094050144093" offsetY="0.0" upX="0.0" upY="-1.0"/></y:ModelParameter></y:NodeLabel>
              <y:SVGNodeProperties usingVisualBounds="true"/>
              <y:SVGModel svgBoundsPolicy="0">
                <y:SVGContent refid="3"/>
              </y:SVGModel>
            </y:SVGNode>
          </data>
        </node>
        <node id="n0::n3">
          <data key="d6">
            <y:SVGNode>
              <y:Geometry height="96.23199844360352" width="69.09529876708984" x="-2345.2477050715165" y="-468.44537319754863"/>
              <y:Fill color="#CCCCFF" transparent="false"/>
              <y:BorderStyle color="#000000" type="line" width="1.0"/>
              <y:NodeLabel alignment="center" autoSizePolicy="content" fontFamily="Dialog" fontSize="12" fontStyle="plain" hasBackgroundColor="false" hasLineColor="false" height="33.40234375" horizontalTextPosition="center" iconTextGap="4" modelName="custom" textColor="#000000" verticalTextPosition="bottom" visible="true" width="100.05859375" x="-15.481647491455078" xml:space="preserve" y="100.23199844360352">Photoshop Server
(virtuell)<y:LabelModel><y:SmartNodeLabelModel distance="4.0"/></y:LabelModel><y:ModelParameter><y:SmartNodeLabelModelParameter labelRatioX="0.0" labelRatioY="-0.5" nodeRatioX="0.0" nodeRatioY="0.5" offsetX="0.0" offsetY="4.0" upX="0.0" upY="-1.0"/></y:ModelParameter></y:NodeLabel>
              <y:SVGNodeProperties usingVisualBounds="true"/>
              <y:SVGModel svgBoundsPolicy="0">
                <y:SVGContent refid="3"/>
              </y:SVGModel>
            </y:SVGNode>
          </data>
        </node>
        <node id="n0::n4">
          <data key="d6">
            <y:SVGNode>
              <y:Geometry height="96.23199844360352" width="69.09529876708984" x="-2496.338121873217" y="-468.44537319754863"/>
              <y:Fill color="#CCCCFF" transparent="false"/>
              <y:BorderStyle color="#000000" type="line" width="1.0"/>
              <y:NodeLabel alignment="center" autoSizePolicy="content" fontFamily="Dialog" fontSize="12" fontStyle="plain" hasBackgroundColor="false" hasLineColor="false" height="33.40234375" horizontalTextPosition="center" iconTextGap="4" modelName="custom" textColor="#000000" verticalTextPosition="bottom" visible="true" width="77.365234375" x="-4.134967803955078" xml:space="preserve" y="100.23199844360352">Bridge Server
(virtuell)<y:LabelModel><y:SmartNodeLabelModel distance="4.0"/></y:LabelModel><y:ModelParameter><y:SmartNodeLabelModelParameter labelRatioX="0.0" labelRatioY="-0.5" nodeRatioX="0.0" nodeRatioY="0.5" offsetX="0.0" offsetY="4.0" upX="0.0" upY="-1.0"/></y:ModelParameter></y:NodeLabel>
              <y:SVGNodeProperties usingVisualBounds="true"/>
              <y:SVGModel svgBoundsPolicy="0">
                <y:SVGContent refid="3"/>
              </y:SVGModel>
            </y:SVGNode>
          </data>
        </node>
        <node id="n0::n5">
          <data key="d6">
            <y:SVGNode>
              <y:Geometry height="96.23199844360352" width="69.09529876708984" x="-2659.865032196045" y="-468.44537319754863"/>
              <y:Fill color="#CCCCFF" transparent="false"/>
              <y:BorderStyle color="#000000" type="line" width="1.0"/>
              <y:NodeLabel alignment="center" autoSizePolicy="content" fontFamily="Dialog" fontSize="12" fontStyle="plain" hasBackgroundColor="false" hasLineColor="false" height="33.40234375" horizontalTextPosition="center" iconTextGap="4" modelName="custom" textColor="#000000" verticalTextPosition="bottom" visible="true" width="74.025390625" x="-2.465045928955078" xml:space="preserve" y="100.23199844360352">Zoner Server
(virtuell)<y:LabelModel><y:SmartNodeLabelModel distance="4.0"/></y:LabelModel><y:ModelParameter><y:SmartNodeLabelModelParameter labelRatioX="0.0" labelRatioY="-0.5" nodeRatioX="0.0" nodeRatioY="0.5" offsetX="0.0" offsetY="4.0" upX="0.0" upY="-1.0"/></y:ModelParameter></y:NodeLabel>
              <y:SVGNodeProperties usingVisualBounds="true"/>
              <y:SVGModel svgBoundsPolicy="0">
                <y:SVGContent refid="3"/>
              </y:SVGModel>
            </y:SVGNode>
          </data>
        </node>
        <node id="n0::n6">
          <data key="d6">
            <y:SVGNode>
              <y:Geometry height="96.23199844360352" width="69.09529876708984" x="-2659.865032196045" y="-629.5624311610021"/>
              <y:Fill color="#CCCCFF" transparent="false"/>
              <y:BorderStyle color="#000000" type="line" width="1.0"/>
              <y:NodeLabel alignment="center" autoSizePolicy="content" fontFamily="Dialog" fontSize="12" fontStyle="plain" hasBackgroundColor="false" hasLineColor="false" height="33.40234375" horizontalTextPosition="center" iconTextGap="4" modelName="custom" textColor="#000000" verticalTextPosition="bottom" visible="true" width="89.365234375" x="-10.134967803955078" xml:space="preserve" y="100.23199844360352">ACDSee Server
(virtuell)<y:LabelModel><y:SmartNodeLabelModel distance="4.0"/></y:LabelModel><y:ModelParameter><y:SmartNodeLabelModelParameter labelRatioX="0.0" labelRatioY="-0.5" nodeRatioX="0.0" nodeRatioY="0.5" offsetX="0.0" offsetY="4.0" upX="0.0" upY="-1.0"/></y:ModelParameter></y:NodeLabel>
              <y:SVGNodeProperties usingVisualBounds="true"/>
              <y:SVGModel svgBoundsPolicy="0">
                <y:SVGContent refid="3"/>
              </y:SVGModel>
            </y:SVGNode>
          </data>
        </node>
        <node id="n0::n7">
          <data key="d6">
            <y:SVGNode>
              <y:Geometry height="96.23199844360352" width="69.09529876708984" x="-2659.865032196045" y="-797.8422644004386"/>
              <y:Fill color="#CCCCFF" transparent="false"/>
              <y:BorderStyle color="#000000" type="line" width="1.0"/>
              <y:NodeLabel alignment="center" autoSizePolicy="content" fontFamily="Dialog" fontSize="12" fontStyle="plain" hasBackgroundColor="false" hasLineColor="false" height="33.40234375" horizontalTextPosition="center" iconTextGap="4" modelName="custom" textColor="#000000" verticalTextPosition="bottom" visible="true" width="60.677734375" x="4.208782196044922" xml:space="preserve" y="100.23199844360352">PDF Tools
(virtuell)<y:LabelModel><y:SmartNodeLabelModel distance="4.0"/></y:LabelModel><y:ModelParameter><y:SmartNodeLabelModelParameter labelRatioX="0.0" labelRatioY="-0.5" nodeRatioX="0.0" nodeRatioY="0.5" offsetX="0.0" offsetY="4.0" upX="0.0" upY="-1.0"/></y:ModelParameter></y:NodeLabel>
              <y:SVGNodeProperties usingVisualBounds="true"/>
              <y:SVGModel svgBoundsPolicy="0">
                <y:SVGContent refid="3"/>
              </y:SVGModel>
            </y:SVGNode>
          </data>
        </node>
        <node id="n0::n8">
          <data key="d6">
            <y:SVGNode>
              <y:Geometry height="96.23199844360352" width="69.09529876708984" x="-2534.5716892968685" y="-910.1595622991763"/>
              <y:Fill color="#CCCCFF" transparent="false"/>
              <y:BorderStyle color="#000000" type="line" width="1.0"/>
              <y:NodeLabel alignment="center" autoSizePolicy="content" fontFamily="Dialog" fontSize="12" fontStyle="plain" hasBackgroundColor="false" hasLineColor="false" height="33.40234375" horizontalTextPosition="center" iconTextGap="4" modelName="custom" textColor="#000000" verticalTextPosition="bottom" visible="true" width="115.404296875" x="-23.154499053955078" xml:space="preserve" y="-43.86406229671479">Titelseitenerkennung
(virtuell)<y:LabelModel><y:SmartNodeLabelModel distance="4.0"/></y:LabelModel><y:ModelParameter><y:SmartNodeLabelModelParameter labelRatioX="0.0" labelRatioY="0.5" nodeRatioX="0.0" nodeRatioY="-0.5" offsetX="0.0" offsetY="-10.461718546714792" upX="0.0" upY="-1.0"/></y:ModelParameter></y:NodeLabel>
              <y:SVGNodeProperties usingVisualBounds="true"/>
              <y:SVGModel svgBoundsPolicy="0">
                <y:SVGContent refid="3"/>
              </y:SVGModel>
            </y:SVGNode>
          </data>
        </node>
        <node id="n0::n9">
          <data key="d6">
            <y:SVGNode>
              <y:Geometry height="96.23199844360352" width="69.09529876708984" x="-2185.049948139207" y="-468.44537319754863"/>
              <y:Fill color="#CCCCFF" transparent="false"/>
              <y:BorderStyle color="#000000" type="line" width="1.0"/>
              <y:NodeLabel alignment="center" autoSizePolicy="content" fontFamily="Dialog" fontSize="12" fontStyle="plain" hasBackgroundColor="false" hasLineColor="false" height="18.701171875" horizontalTextPosition="center" iconTextGap="4" modelName="custom" textColor="#000000" verticalTextPosition="bottom" visible="true" width="70.005859375" x="-0.4552803039550781" xml:space="preserve" y="100.23199844360352">Citrix Server<y:LabelModel><y:SmartNodeLabelModel distance="4.0"/></y:LabelModel><y:ModelParameter><y:SmartNodeLabelModelParameter labelRatioX="0.0" labelRatioY="-0.5" nodeRatioX="0.0" nodeRatioY="0.5" offsetX="0.0" offsetY="4.0" upX="0.0" upY="-1.0"/></y:ModelParameter></y:NodeLabel>
              <y:SVGNodeProperties usingVisualBounds="true"/>
              <y:SVGModel svgBoundsPolicy="0">
                <y:SVGContent refid="3"/>
              </y:SVGModel>
            </y:SVGNode>
          </data>
        </node>
      </graph>
    </node>
    <node id="n1" yfiles.foldertype="group">
      <data key="d4" xml:space="preserve"/>
      <data key="d6">
        <y:ProxyAutoBoundsNode>
          <y:Realizers active="0">
            <y:GroupNode>
              <y:Geometry height="312.5236415863038" width="740.1179070589747" x="-2520.5612522851497" y="-306.0952835521639"/>
              <y:Fill color="#F5F5F5" transparent="false"/>
              <y:BorderStyle color="#000000" type="dashed" width="1.0"/>
              <y:NodeLabel alignment="right" autoSizePolicy="node_width" backgroundColor="#EBEBEB" borderDistance="0.0" fontFamily="Dialog" fontSize="15" fontStyle="plain" hasLineColor="false" height="22.37646484375" horizontalTextPosition="center" iconTextGap="4" modelName="internal" modelPosition="t" textColor="#000000" verticalTextPosition="bottom" visible="true" width="740.1179070589747" x="0.0" xml:space="preserve" y="0.0">Manufaktur</y:NodeLabel>
              <y:Shape type="roundrectangle"/>
              <y:State closed="false" closedHeight="50.0" closedWidth="50.0" innerGraphDisplayEnabled="false"/>
              <y:Insets bottom="15" bottomF="15.0" left="15" leftF="15.0" right="15" rightF="15.0" top="15" topF="15.0"/>
              <y:BorderInsets bottom="109" bottomF="109.37499999999989" left="112" leftF="111.76043128563606" right="0" rightF="0.0" top="56" topF="55.82537269592308"/>
            </y:GroupNode>
            <y:GroupNode>
              <y:Geometry height="50.0" width="50.0" x="-2979.9025110855105" y="-206.73285432434113"/>
              <y:Fill color="#F5F5F5" transparent="false"/>
              <y:BorderStyle color="#000000" type="dashed" width="1.0"/>
              <y:NodeLabel alignment="right" autoSizePolicy="node_width" backgroundColor="#EBEBEB" borderDistance="0.0" fontFamily="Dialog" fontSize="15" fontStyle="plain" hasLineColor="false" height="22.37646484375" horizontalTextPosition="center" iconTextGap="4" modelName="internal" modelPosition="t" textColor="#000000" verticalTextPosition="bottom" visible="true" width="50.0" x="0.0" xml:space="preserve" y="0.0">1</y:NodeLabel>
              <y:Shape type="roundrectangle"/>
              <y:State closed="true" closedHeight="50.0" closedWidth="50.0" innerGraphDisplayEnabled="false"/>
              <y:Insets bottom="15" bottomF="15.0" left="15" leftF="15.0" right="15" rightF="15.0" top="15" topF="15.0"/>
              <y:BorderInsets bottom="0" bottomF="0.0" left="0" leftF="0.0" right="20" rightF="20.0" top="0" topF="0.0"/>
            </y:GroupNode>
          </y:Realizers>
        </y:ProxyAutoBoundsNode>
      </data>
      <graph edgedefault="directed" id="n1:">
        <node id="n1::n0">
          <data key="d6">
            <y:SVGNode>
              <y:Geometry height="34.58399963378906" width="102.15814971923828" x="-2086.751276398241" y="-194.06262974356991"/>
              <y:Fill color="#CCCCFF" transparent="false"/>
              <y:BorderStyle color="#000000" type="line" width="1.0"/>
              <y:NodeLabel alignment="center" autoSizePolicy="content" fontFamily="Dialog" fontSize="12" fontStyle="plain" hasBackgroundColor="false" hasLineColor="false" height="18.701171875" horizontalTextPosition="center" iconTextGap="4" modelName="custom" textColor="#000000" verticalTextPosition="bottom" visible="true" width="184.7265625" x="-41.28420639038086" xml:space="preserve" y="47.04473390527363">Switch 1: UniFi US-16-XG 16 Port<y:LabelModel><y:SmartNodeLabelModel distance="4.0"/></y:LabelModel><y:ModelParameter><y:SmartNodeLabelModelParameter labelRatioX="0.0" labelRatioY="-0.5" nodeRatioX="0.0" nodeRatioY="0.5" offsetX="0.0" offsetY="12.460734271484569" upX="0.0" upY="-1.0"/></y:ModelParameter></y:NodeLabel>
              <y:SVGNodeProperties usingVisualBounds="true"/>
              <y:SVGModel svgBoundsPolicy="0">
                <y:SVGContent refid="1"/>
              </y:SVGModel>
            </y:SVGNode>
          </data>
        </node>
        <node id="n1::n1">
          <data key="d6">
            <y:SVGNode>
              <y:Geometry height="72.24563217163086" width="84.0260009765625" x="-2393.8008209995137" y="-212.8934460124908"/>
              <y:Fill color="#CCCCFF" transparent="false"/>
              <y:BorderStyle color="#000000" type="line" width="1.0"/>
              <y:NodeLabel alignment="center" autoSizePolicy="content" fontFamily="Dialog" fontSize="12" fontStyle="plain" hasBackgroundColor="false" hasLineColor="false" height="18.701171875" horizontalTextPosition="center" iconTextGap="4" modelName="custom" textColor="#000000" verticalTextPosition="bottom" visible="true" width="78.033203125" x="2.99639892578125" xml:space="preserve" y="76.24563217163086">Testrechner 1<y:LabelModel><y:SmartNodeLabelModel distance="4.0"/></y:LabelModel><y:ModelParameter><y:SmartNodeLabelModelParameter labelRatioX="0.0" labelRatioY="-0.5" nodeRatioX="0.0" nodeRatioY="0.5" offsetX="0.0" offsetY="4.0" upX="0.0" upY="-1.0"/></y:ModelParameter></y:NodeLabel>
              <y:SVGNodeProperties usingVisualBounds="true"/>
              <y:SVGModel svgBoundsPolicy="0">
                <y:SVGContent refid="4"/>
              </y:SVGModel>
            </y:SVGNode>
          </data>
        </node>
        <node id="n1::n2">
          <data key="d6">
            <y:SVGNode>
              <y:Geometry height="72.24563217163086" width="84.0260009765625" x="-1879.4693462027376" y="-212.8934460124908"/>
              <y:Fill color="#CCCCFF" transparent="false"/>
              <y:BorderStyle color="#000000" type="line" width="1.0"/>
              <y:NodeLabel alignment="center" autoSizePolicy="content" fontFamily="Dialog" fontSize="12" fontStyle="plain" hasBackgroundColor="false" hasLineColor="false" height="18.701171875" horizontalTextPosition="center" iconTextGap="4" modelName="custom" textColor="#000000" verticalTextPosition="bottom" visible="true" width="78.033203125" x="2.99639892578125" xml:space="preserve" y="76.24563217163086">Testrechner 2<y:LabelModel><y:SmartNodeLabelModel distance="4.0"/></y:LabelModel><y:ModelParameter><y:SmartNodeLabelModelParameter labelRatioX="0.0" labelRatioY="-0.5" nodeRatioX="0.0" nodeRatioY="0.5" offsetX="0.0" offsetY="4.0" upX="0.0" upY="-1.0"/></y:ModelParameter></y:NodeLabel>
              <y:SVGNodeProperties usingVisualBounds="true"/>
              <y:SVGModel svgBoundsPolicy="0">
                <y:SVGContent refid="4"/>
              </y:SVGModel>
            </y:SVGNode>
          </data>
        </node>
      </graph>
    </node>
    <edge id="n1::e0" source="n1::n1" target="n1::n0">
      <data key="d10">
        <y:PolyLineEdge>
          <y:Path sx="0.0" sy="1.1368683772161603E-13" tx="0.0" ty="0.0"/>
          <y:LineStyle color="#00FFFF" type="line" width="1.0"/>
          <y:Arrows source="standard" target="standard"/>
          <y:BendStyle smoothed="false"/>
        </y:PolyLineEdge>
      </data>
    </edge>
    <edge id="e0" source="n1::n0" target="n0::n0">
      <data key="d10">
        <y:PolyLineEdge>
          <y:Path sx="0.0" sy="0.0" tx="0.0" ty="0.0"/>
          <y:LineStyle color="#008000" type="line" width="2.0"/>
          <y:Arrows source="standard" target="standard"/>
          <y:BendStyle smoothed="false"/>
        </y:PolyLineEdge>
      </data>
    </edge>
    <edge id="e1" source="n0::n0" target="n1::n2">
      <data key="d10">
        <y:PolyLineEdge>
          <y:Path sx="0.0" sy="0.0" tx="0.0" ty="0.0">
            <y:Point x="-1893.2724859203913" y="-653.2726675522471"/>
            <y:Point x="-1893.2724859203913" y="-362.39043634415225"/>
          </y:Path>
          <y:LineStyle color="#00FFFF" type="line" width="1.0"/>
          <y:Arrows source="standard" target="standard"/>
          <y:BendStyle smoothed="false"/>
        </y:PolyLineEdge>
      </data>
    </edge>
    <edge id="n0::e0" source="n0::n0" target="n0::n1">
      <data key="d10">
        <y:PolyLineEdge>
          <y:Path sx="0.0" sy="0.0" tx="0.0" ty="0.0"/>
          <y:LineStyle color="#008000" type="line" width="1.0"/>
          <y:Arrows source="standard" target="standard"/>
          <y:BendStyle smoothed="false"/>
        </y:PolyLineEdge>
      </data>
    </edge>
    <edge id="n0::e1" source="n0::n2" target="n0::n3">
      <data key="d10">
        <y:PolyLineEdge>
          <y:Path sx="0.0" sy="0.0" tx="0.0" ty="0.0"/>
          <y:LineStyle color="#000000" type="line" width="1.0"/>
          <y:Arrows source="none" target="standard"/>
          <y:BendStyle smoothed="false"/>
        </y:PolyLineEdge>
      </data>
    </edge>
    <edge id="n0::e2" source="n0::n2" target="n0::n4">
      <data key="d10">
        <y:PolyLineEdge>
          <y:Path sx="0.0" sy="0.0" tx="0.0" ty="0.0"/>
          <y:LineStyle color="#000000" type="line" width="1.0"/>
          <y:Arrows source="none" target="standard"/>
          <y:BendStyle smoothed="false"/>
        </y:PolyLineEdge>
      </data>
    </edge>
    <edge id="n0::e3" source="n0::n2" target="n0::n5">
      <data key="d10">
        <y:PolyLineEdge>
          <y:Path sx="0.0" sy="0.0" tx="0.0" ty="0.0"/>
          <y:LineStyle color="#000000" type="line" width="1.0"/>
          <y:Arrows source="none" target="standard"/>
          <y:BendStyle smoothed="false"/>
        </y:PolyLineEdge>
      </data>
    </edge>
    <edge id="n0::e4" source="n0::n2" target="n0::n6">
      <data key="d10">
        <y:PolyLineEdge>
          <y:Path sx="0.0" sy="0.0" tx="0.0" ty="0.0"/>
          <y:LineStyle color="#000000" type="line" width="1.0"/>
          <y:Arrows source="none" target="standard"/>
          <y:BendStyle smoothed="false"/>
        </y:PolyLineEdge>
      </data>
    </edge>
    <edge id="n0::e5" source="n0::n2" target="n0::n7">
      <data key="d10">
        <y:PolyLineEdge>
          <y:Path sx="0.0" sy="0.0" tx="0.0" ty="0.0"/>
          <y:LineStyle color="#000000" type="line" width="1.0"/>
          <y:Arrows source="none" target="standard"/>
          <y:BendStyle smoothed="false"/>
        </y:PolyLineEdge>
      </data>
    </edge>
    <edge id="n0::e6" source="n0::n2" target="n0::n8">
      <data key="d10">
        <y:PolyLineEdge>
          <y:Path sx="0.0" sy="0.0" tx="0.0" ty="0.0"/>
          <y:LineStyle color="#000000" type="line" width="1.0"/>
          <y:Arrows source="none" target="standard"/>
          <y:BendStyle smoothed="false"/>
        </y:PolyLineEdge>
      </data>
    </edge>
    <edge id="n0::e7" source="n0::n2" target="n0::n0">
      <data key="d10">
        <y:PolyLineEdge>
          <y:Path sx="0.0" sy="0.0" tx="0.0" ty="0.0">
            <y:Point x="-2169.6722015386217" y="-718.8976675522471"/>
          </y:Path>
          <y:LineStyle color="#00FFFF" type="line" width="1.0"/>
          <y:Arrows source="standard" target="standard"/>
          <y:BendStyle smoothed="false"/>
        </y:PolyLineEdge>
      </data>
    </edge>
    <edge id="n0::e8" source="n0::n9" target="n0::n0">
      <data key="d10">
        <y:PolyLineEdge>
          <y:Path sx="0.0" sy="0.0" tx="0.0" ty="0.0"/>
          <y:LineStyle color="#00FFFF" type="line" width="1.0"/>
          <y:Arrows source="standard" target="standard"/>
          <y:BendStyle smoothed="false"/>
        </y:PolyLineEdge>
      </data>
    </edge>
  </graph>
  <data key="d7">
    <y:Resources>
      <y:Resource id="1" xml:space="preserve">&lt;?xml version="1.0" encoding="utf-8"?&gt;
&lt;svg version="1.1"
	 xmlns="http://www.w3.org/2000/svg" xmlns:xlink="http://www.w3.org/1999/xlink"
	 x="0px" y="0px" width="71px" height="20px" viewBox="-0.998 -0.189 71 20" enable-background="new -0.998 -0.189 71 20"
	 xml:space="preserve"&gt;
&lt;defs&gt;
&lt;/defs&gt;
&lt;linearGradient id="SVGID_1_" gradientUnits="userSpaceOnUse" x1="166.2588" y1="-255.0679" x2="97.0793" y2="-255.0679" gradientTransform="matrix(1 0 0 -1 -97.6001 -245.2793)"&gt;
	&lt;stop  offset="0" style="stop-color:#6E6E6E"/&gt;
	&lt;stop  offset="0.1059" style="stop-color:#707070"/&gt;
	&lt;stop  offset="0.1647" style="stop-color:#787878"/&gt;
	&lt;stop  offset="0.1939" style="stop-color:#808080"/&gt;
	&lt;stop  offset="0.4146" style="stop-color:#838383"/&gt;
	&lt;stop  offset="0.5499" style="stop-color:#8B8B8B"/&gt;
	&lt;stop  offset="0.6622" style="stop-color:#999999"/&gt;
	&lt;stop  offset="0.7614" style="stop-color:#AEAEAE"/&gt;
	&lt;stop  offset="0.7818" style="stop-color:#B3B3B3"/&gt;
&lt;/linearGradient&gt;
&lt;path fill="url(#SVGID_1_)" d="M67.531,7.236c0.005,0,0.017,0.002,0.017,0.002l-0.062-0.031c-0.027-0.015-0.055-0.027-0.082-0.041
	l-11.06-5.477c-1.225-0.615-3.346-1.203-4.713-1.307c0,0-5.071-0.383-16.858-0.383C25.138,0,17.44,0.431,17.44,0.431
	c-1.37,0.077-3.495,0.637-4.724,1.243L1.976,7.02h0.001C0.852,7.342,0,8.412,0,9.607v6.232c0,1.371,1.118,2.584,2.484,2.695
	c0,0,12.681,1.037,32.001,1.043c19.943,0.006,32.001-1.031,32.001-1.031c1.365-0.118,2.481-1.336,2.481-2.707V9.607
	C68.971,8.613,68.378,7.705,67.531,7.236z M34.96,5.869c-0.091,0-0.181,0-0.272,0c0.029,0,0.058,0,0.087,0
	C34.837,5.869,34.898,5.869,34.96,5.869z M33.312,5.873c-0.047,0-0.094,0-0.141,0C33.218,5.873,33.265,5.873,33.312,5.873z"/&gt;
&lt;linearGradient id="SVGID_2_" gradientUnits="userSpaceOnUse" x1="161.5615" y1="-258.8867" x2="102.6104" y2="-258.8867" gradientTransform="matrix(1 0 0 -1 -97.6001 -245.2793)"&gt;
	&lt;stop  offset="0" style="stop-color:#3C89C9"/&gt;
	&lt;stop  offset="0.0948" style="stop-color:#579FD8"/&gt;
	&lt;stop  offset="0.2096" style="stop-color:#70B3E6"/&gt;
	&lt;stop  offset="0.338" style="stop-color:#84C3F1"/&gt;
	&lt;stop  offset="0.4855" style="stop-color:#92CFF9"/&gt;
	&lt;stop  offset="0.6692" style="stop-color:#9AD5FE"/&gt;
	&lt;stop  offset="1" style="stop-color:#9CD7FF"/&gt;
&lt;/linearGradient&gt;
&lt;path fill="url(#SVGID_2_)" stroke="#8D8D8D" stroke-width="0.3116" stroke-miterlimit="10" d="M62.746,9.363
	c-0.643-0.209-18.186-0.222-28.259-0.222C26.25,9.142,6.7,9.177,6.7,9.177h0.001c-0.961,0.274-1.689,1.19-1.689,2.212v3.878
	c0,1.172,0.956,2.209,2.124,2.304c0,0,10.837,0.498,27.351,0.504c17.047,0.004,27.355-0.494,27.355-0.494
	c1.167-0.101,2.121-1.142,2.121-2.313V11.39C63.962,10.539,63.389,9.572,62.746,9.363z"/&gt;
&lt;path opacity="0.29" fill="#FFFFFF" enable-background="new    " d="M62.746,9.363c-0.643-0.209-18.186-0.222-28.259-0.222
	C26.25,9.142,6.7,9.177,6.7,9.177h0.001c-0.961,0.274-1.689,1.19-1.689,2.212v3.878l58.95-2.039v-1.839
	C63.962,10.539,63.389,9.572,62.746,9.363z"/&gt;
&lt;rect x="66.322" y="10.801" fill="#C8FF00" stroke="#717171" stroke-width="0.0623" stroke-miterlimit="10" width="2.805" height="1.143"/&gt;
&lt;polygon fill="#4D4D4D" stroke="#D9F1FF" stroke-width="0.3739" stroke-miterlimit="10" points="49.29,10.748 42.436,10.748 
	42.436,15.734 44.512,15.734 44.512,16.412 47.213,16.412 47.212,15.734 49.29,15.734 "/&gt;
&lt;polygon fill="#4D4D4D" stroke="#D9F1FF" stroke-width="0.3739" stroke-miterlimit="10" points="37.79,10.748 30.935,10.748 
	30.935,15.734 33.012,15.734 33.012,16.412 35.713,16.412 35.712,15.734 37.79,15.734 "/&gt;
&lt;polygon fill="#4D4D4D" stroke="#D9F1FF" stroke-width="0.3739" stroke-miterlimit="10" points="26.29,10.748 19.435,10.748 
	19.435,15.734 21.512,15.734 21.512,16.412 24.213,16.412 24.212,15.734 26.29,15.734 "/&gt;
&lt;polygon fill="#4D4D4D" stroke="#D9F1FF" stroke-width="0.3739" stroke-miterlimit="10" points="14.79,10.748 7.935,10.748 
	7.935,15.734 10.012,15.734 10.012,16.412 12.713,16.412 12.712,15.734 14.79,15.734 "/&gt;
&lt;polygon fill="#4D4D4D" stroke="#D9F1FF" stroke-width="0.3739" stroke-miterlimit="10" points="60.79,10.748 53.936,10.748 
	53.936,15.734 56.012,15.734 56.012,16.412 58.713,16.412 58.712,15.734 60.79,15.734 "/&gt;
&lt;/svg&gt;
</y:Resource>
      <y:Resource id="2" xml:space="preserve">&lt;?xml version="1.0" encoding="utf-8"?&gt;
&lt;svg version="1.1"
	 xmlns="http://www.w3.org/2000/svg" xmlns:xlink="http://www.w3.org/1999/xlink"
	 x="0px" y="0px" width="41px" height="48px" viewBox="-0.875 -0.887 41 48" enable-background="new -0.875 -0.887 41 48"
	 xml:space="preserve"&gt;
&lt;defs&gt;
&lt;/defs&gt;
&lt;linearGradient id="SVGID_1_" gradientUnits="userSpaceOnUse" x1="642.8008" y1="-979.1445" x2="682.0508" y2="-979.1445" gradientTransform="matrix(1 0 0 -1 -642.8008 -939.4756)"&gt;
	&lt;stop  offset="0" style="stop-color:#3C89C9"/&gt;
	&lt;stop  offset="0.1482" style="stop-color:#60A6DD"/&gt;
	&lt;stop  offset="0.3113" style="stop-color:#81C1F0"/&gt;
	&lt;stop  offset="0.4476" style="stop-color:#95D1FB"/&gt;
	&lt;stop  offset="0.5394" style="stop-color:#9CD7FF"/&gt;
	&lt;stop  offset="0.636" style="stop-color:#98D4FD"/&gt;
	&lt;stop  offset="0.7293" style="stop-color:#8DCAF6"/&gt;
	&lt;stop  offset="0.8214" style="stop-color:#79BBEB"/&gt;
	&lt;stop  offset="0.912" style="stop-color:#5EA5DC"/&gt;
	&lt;stop  offset="1" style="stop-color:#3C89C9"/&gt;
&lt;/linearGradient&gt;
&lt;path fill="url(#SVGID_1_)" d="M19.625,36.763C8.787,36.763,0,34.888,0,32.575v10c0,2.313,8.787,4.188,19.625,4.188
	c10.839,0,19.625-1.875,19.625-4.188v-10C39.25,34.888,30.464,36.763,19.625,36.763z"/&gt;
&lt;linearGradient id="SVGID_2_" gradientUnits="userSpaceOnUse" x1="642.8008" y1="-973.1445" x2="682.0508" y2="-973.1445" gradientTransform="matrix(1 0 0 -1 -642.8008 -939.4756)"&gt;
	&lt;stop  offset="0" style="stop-color:#9CD7FF"/&gt;
	&lt;stop  offset="0.0039" style="stop-color:#9DD7FF"/&gt;
	&lt;stop  offset="0.2273" style="stop-color:#BDE5FF"/&gt;
	&lt;stop  offset="0.4138" style="stop-color:#D1EEFF"/&gt;
	&lt;stop  offset="0.5394" style="stop-color:#D9F1FF"/&gt;
	&lt;stop  offset="0.6155" style="stop-color:#D5EFFE"/&gt;
	&lt;stop  offset="0.6891" style="stop-color:#C9E7FA"/&gt;
	&lt;stop  offset="0.7617" style="stop-color:#B6DAF3"/&gt;
	&lt;stop  offset="0.8337" style="stop-color:#9AC8EA"/&gt;
	&lt;stop  offset="0.9052" style="stop-color:#77B0DD"/&gt;
	&lt;stop  offset="0.9754" style="stop-color:#4D94CF"/&gt;
	&lt;stop  offset="1" style="stop-color:#3C89C9"/&gt;
&lt;/linearGradient&gt;
&lt;path fill="url(#SVGID_2_)" d="M19.625,36.763c10.839,0,19.625-1.875,19.625-4.188l-1.229-2c0,2.168-8.235,3.927-18.396,3.927
	c-9.481,0-17.396-1.959-18.396-3.927l-1.229,2C0,34.888,8.787,36.763,19.625,36.763z"/&gt;
&lt;path fill="#3C89C9" d="M19.625,26.468c10.16,0,19.625,2.775,19.625,2.775c-0.375,2.721-5.367,5.438-19.554,5.438
	c-12.125,0-18.467-2.484-19.541-4.918C-0.127,29.125,9.465,26.468,19.625,26.468z"/&gt;
&lt;linearGradient id="SVGID_3_" gradientUnits="userSpaceOnUse" x1="642.8008" y1="-965.6948" x2="682.0508" y2="-965.6948" gradientTransform="matrix(1 0 0 -1 -642.8008 -939.4756)"&gt;
	&lt;stop  offset="0" style="stop-color:#3C89C9"/&gt;
	&lt;stop  offset="0.1482" style="stop-color:#60A6DD"/&gt;
	&lt;stop  offset="0.3113" style="stop-color:#81C1F0"/&gt;
	&lt;stop  offset="0.4476" style="stop-color:#95D1FB"/&gt;
	&lt;stop  offset="0.5394" style="stop-color:#9CD7FF"/&gt;
	&lt;stop  offset="0.636" style="stop-color:#98D4FD"/&gt;
	&lt;stop  offset="0.7293" style="stop-color:#8DCAF6"/&gt;
	&lt;stop  offset="0.8214" style="stop-color:#79BBEB"/&gt;
	&lt;stop  offset="0.912" style="stop-color:#5EA5DC"/&gt;
	&lt;stop  offset="1" style="stop-color:#3C89C9"/&gt;
&lt;/linearGradient&gt;
&lt;path fill="url(#SVGID_3_)" d="M19.625,23.313C8.787,23.313,0,21.438,0,19.125v10c0,2.313,8.787,4.188,19.625,4.188
	c10.839,0,19.625-1.875,19.625-4.188v-10C39.25,21.438,30.464,23.313,19.625,23.313z"/&gt;
&lt;linearGradient id="SVGID_4_" gradientUnits="userSpaceOnUse" x1="642.8008" y1="-959.6948" x2="682.0508" y2="-959.6948" gradientTransform="matrix(1 0 0 -1 -642.8008 -939.4756)"&gt;
	&lt;stop  offset="0" style="stop-color:#9CD7FF"/&gt;
	&lt;stop  offset="0.0039" style="stop-color:#9DD7FF"/&gt;
	&lt;stop  offset="0.2273" style="stop-color:#BDE5FF"/&gt;
	&lt;stop  offset="0.4138" style="stop-color:#D1EEFF"/&gt;
	&lt;stop  offset="0.5394" style="stop-color:#D9F1FF"/&gt;
	&lt;stop  offset="0.6155" style="stop-color:#D5EFFE"/&gt;
	&lt;stop  offset="0.6891" style="stop-color:#C9E7FA"/&gt;
	&lt;stop  offset="0.7617" style="stop-color:#B6DAF3"/&gt;
	&lt;stop  offset="0.8337" style="stop-color:#9AC8EA"/&gt;
	&lt;stop  offset="0.9052" style="stop-color:#77B0DD"/&gt;
	&lt;stop  offset="0.9754" style="stop-color:#4D94CF"/&gt;
	&lt;stop  offset="1" style="stop-color:#3C89C9"/&gt;
&lt;/linearGradient&gt;
&lt;path fill="url(#SVGID_4_)" d="M19.625,23.313c10.839,0,19.625-1.875,19.625-4.188l-1.229-2c0,2.168-8.235,3.926-18.396,3.926
	c-9.481,0-17.396-1.959-18.396-3.926l-1.229,2C0,21.438,8.787,23.313,19.625,23.313z"/&gt;
&lt;path fill="#3C89C9" d="M19.476,13.019c10.161,0,19.625,2.775,19.625,2.775c-0.375,2.721-5.367,5.438-19.555,5.438
	c-12.125,0-18.467-2.485-19.541-4.918C-0.277,15.674,9.316,13.019,19.476,13.019z"/&gt;
&lt;linearGradient id="SVGID_5_" gradientUnits="userSpaceOnUse" x1="642.8008" y1="-952.4946" x2="682.0508" y2="-952.4946" gradientTransform="matrix(1 0 0 -1 -642.8008 -939.4756)"&gt;
	&lt;stop  offset="0" style="stop-color:#3C89C9"/&gt;
	&lt;stop  offset="0.1482" style="stop-color:#60A6DD"/&gt;
	&lt;stop  offset="0.3113" style="stop-color:#81C1F0"/&gt;
	&lt;stop  offset="0.4476" style="stop-color:#95D1FB"/&gt;
	&lt;stop  offset="0.5394" style="stop-color:#9CD7FF"/&gt;
	&lt;stop  offset="0.636" style="stop-color:#98D4FD"/&gt;
	&lt;stop  offset="0.7293" style="stop-color:#8DCAF6"/&gt;
	&lt;stop  offset="0.8214" style="stop-color:#79BBEB"/&gt;
	&lt;stop  offset="0.912" style="stop-color:#5EA5DC"/&gt;
	&lt;stop  offset="1" style="stop-color:#3C89C9"/&gt;
&lt;/linearGradient&gt;
&lt;path fill="url(#SVGID_5_)" d="M19.625,10.113C8.787,10.113,0,8.238,0,5.925v10c0,2.313,8.787,4.188,19.625,4.188
	c10.839,0,19.625-1.875,19.625-4.188v-10C39.25,8.238,30.464,10.113,19.625,10.113z"/&gt;
&lt;linearGradient id="SVGID_6_" gradientUnits="userSpaceOnUse" x1="642.8008" y1="-946.4946" x2="682.0508" y2="-946.4946" gradientTransform="matrix(1 0 0 -1 -642.8008 -939.4756)"&gt;
	&lt;stop  offset="0" style="stop-color:#9CD7FF"/&gt;
	&lt;stop  offset="0.0039" style="stop-color:#9DD7FF"/&gt;
	&lt;stop  offset="0.2273" style="stop-color:#BDE5FF"/&gt;
	&lt;stop  offset="0.4138" style="stop-color:#D1EEFF"/&gt;
	&lt;stop  offset="0.5394" style="stop-color:#D9F1FF"/&gt;
	&lt;stop  offset="0.6155" style="stop-color:#D5EFFE"/&gt;
	&lt;stop  offset="0.6891" style="stop-color:#C9E7FA"/&gt;
	&lt;stop  offset="0.7617" style="stop-color:#B6DAF3"/&gt;
	&lt;stop  offset="0.8337" style="stop-color:#9AC8EA"/&gt;
	&lt;stop  offset="0.9052" style="stop-color:#77B0DD"/&gt;
	&lt;stop  offset="0.9754" style="stop-color:#4D94CF"/&gt;
	&lt;stop  offset="1" style="stop-color:#3C89C9"/&gt;
&lt;/linearGradient&gt;
&lt;path fill="url(#SVGID_6_)" d="M19.625,10.113c10.839,0,19.625-1.875,19.625-4.188l-1.229-2c0,2.168-8.235,3.926-18.396,3.926
	c-9.481,0-17.396-1.959-18.396-3.926L0,5.925C0,8.238,8.787,10.113,19.625,10.113z"/&gt;
&lt;linearGradient id="SVGID_7_" gradientUnits="userSpaceOnUse" x1="644.0293" y1="-943.4014" x2="680.8223" y2="-943.4014" gradientTransform="matrix(1 0 0 -1 -642.8008 -939.4756)"&gt;
	&lt;stop  offset="0" style="stop-color:#9CD7FF"/&gt;
	&lt;stop  offset="1" style="stop-color:#3C89C9"/&gt;
&lt;/linearGradient&gt;
&lt;ellipse fill="url(#SVGID_7_)" cx="19.625" cy="3.926" rx="18.396" ry="3.926"/&gt;
&lt;path opacity="0.24" fill="#FFFFFF" enable-background="new    " d="M31.04,45.982c0,0-4.354,0.664-7.29,0.781
	c-3.125,0.125-8.952,0-8.952,0l-2.384-10.292l0.044-2.108l-1.251-1.154L9.789,23.024l-0.082-0.119L9.5,20.529l-1.65-1.254
	L5.329,8.793c0,0,4.213,0.903,7.234,1.07s8.375,0.25,8.375,0.25l3,9.875l-0.25,1.313l1.063,2.168l2.312,9.645l-0.521,1.416
	l1.46,1.834L31.04,45.982z"/&gt;
&lt;/svg&gt;
</y:Resource>
      <y:Resource id="3" xml:space="preserve">&lt;?xml version="1.0" encoding="utf-8"?&gt;
&lt;svg version="1.1"
	 xmlns="http://www.w3.org/2000/svg" xmlns:xlink="http://www.w3.org/1999/xlink"
	 x="0px" y="0px" width="36px" height="57px" viewBox="0 -0.741 36 57" enable-background="new 0 -0.741 36 57"
	 xml:space="preserve"&gt;
&lt;defs&gt;
&lt;/defs&gt;
&lt;linearGradient id="SVGID_1_" gradientUnits="userSpaceOnUse" x1="230.1768" y1="798.6021" x2="180.3346" y2="798.6021" gradientTransform="matrix(1 0 0 1 -195.2002 -770.8008)"&gt;
	&lt;stop  offset="0" style="stop-color:#4D4D4D"/&gt;
	&lt;stop  offset="1" style="stop-color:#8D8D8D"/&gt;
&lt;/linearGradient&gt;
&lt;rect y="0.943" fill="url(#SVGID_1_)" width="34.977" height="53.716"/&gt;
&lt;linearGradient id="SVGID_2_" gradientUnits="userSpaceOnUse" x1="224.6807" y1="798.6021" x2="200.6973" y2="798.6021" gradientTransform="matrix(1 0 0 1 -195.2002 -770.8008)"&gt;
	&lt;stop  offset="0.0319" style="stop-color:#848484"/&gt;
	&lt;stop  offset="0.1202" style="stop-color:#8C8C8C"/&gt;
	&lt;stop  offset="0.308" style="stop-color:#969696"/&gt;
	&lt;stop  offset="0.5394" style="stop-color:#999999"/&gt;
	&lt;stop  offset="0.5501" style="stop-color:#9C9C9C"/&gt;
	&lt;stop  offset="0.6256" style="stop-color:#B0B0B0"/&gt;
	&lt;stop  offset="0.7118" style="stop-color:#BEBEBE"/&gt;
	&lt;stop  offset="0.8178" style="stop-color:#C7C7C7"/&gt;
	&lt;stop  offset="1" style="stop-color:#C9C9C9"/&gt;
&lt;/linearGradient&gt;
&lt;path fill="url(#SVGID_2_)" d="M5.497,0.943c7.945-1.258,16.04-1.258,23.983,0c0,17.905,0,35.811,0,53.716
	c-7.943,1.258-16.039,1.258-23.983,0C5.497,36.753,5.497,18.848,5.497,0.943z"/&gt;
&lt;path fill="#515151" d="M5.497,14.621c7.995,0,15.989,0,23.983,0c0,13.346,0,26.693,0,40.037c-7.943,1.258-16.039,1.258-23.983,0
	C5.497,41.314,5.497,27.967,5.497,14.621z"/&gt;
&lt;path opacity="0.43" fill="#565656" d="M5.497,4.745c7.982-0.628,16.001-0.628,23.983,0c0,2.707,0,5.413,0,8.12
	c-7.994,0-15.989,0-23.983,0C5.497,10.158,5.497,7.452,5.497,4.745z"/&gt;
&lt;path opacity="0.43" fill="none" stroke="#4D4D4D" stroke-width="0.0999" stroke-miterlimit="10" d="M5.497,4.745
	c7.982-0.628,16.001-0.628,23.983,0c0,2.707,0,5.413,0,8.12c-7.994,0-15.989,0-23.983,0C5.497,10.158,5.497,7.452,5.497,4.745z"/&gt;
&lt;polygon opacity="0.43" fill="#565656" stroke="#4D4D4D" stroke-width="0.0135" stroke-miterlimit="10" enable-background="new    " points="
	6.496,5.746 9.869,5.606 9.869,6.661 6.496,6.799 "/&gt;
&lt;rect x="31.307" y="2.517" fill="#E7ED00" stroke="#717171" stroke-width="0.1926" stroke-miterlimit="10" width="3.692" height="1.505"/&gt;
&lt;rect x="31.307" y="5.8" fill="#C8FF00" stroke="#717171" stroke-width="0.1926" stroke-miterlimit="10" width="3.692" height="1.507"/&gt;
&lt;linearGradient id="SVGID_3_" gradientUnits="userSpaceOnUse" x1="29.4414" y1="35.1235" x2="5.4995" y2="35.1235"&gt;
	&lt;stop  offset="0" style="stop-color:#808080"/&gt;
	&lt;stop  offset="0.1907" style="stop-color:#828282"/&gt;
	&lt;stop  offset="0.2955" style="stop-color:#8A8A8A"/&gt;
	&lt;stop  offset="0.3795" style="stop-color:#989898"/&gt;
	&lt;stop  offset="0.4524" style="stop-color:#ACACAC"/&gt;
	&lt;stop  offset="0.5175" style="stop-color:#C5C5C5"/&gt;
	&lt;stop  offset="0.5273" style="stop-color:#C9C9C9"/&gt;
	&lt;stop  offset="0.5914" style="stop-color:#C9C9C9"/&gt;
	&lt;stop  offset="0.9681" style="stop-color:#C9C9C9"/&gt;
&lt;/linearGradient&gt;
&lt;path fill="url(#SVGID_3_)" d="M5.5,14.822c0,13.22,0,26.438,0,39.66c7.931,1.256,16.012,1.256,23.941,0c0-13.222,0-26.439,0-39.66
	C21.461,14.822,13.48,14.822,5.5,14.822z M28.396,18.703c-0.74,0.01-1.482,0.02-2.225,0.029c0-0.951,0-1.901-0.001-2.85
	c0.742-0.003,1.483-0.005,2.224-0.008C28.396,16.817,28.396,17.76,28.396,18.703z M16.354,42.496c0-0.961,0-1.924,0-2.885
	c0.744,0.006,1.489,0.006,2.233,0c0,0.961,0,1.924,0,2.885C17.843,42.503,17.098,42.503,16.354,42.496z M18.587,43.568
	c0,0.955,0,1.91,0,2.866c-0.744,0.009-1.489,0.009-2.234,0c0-0.956,0-1.911,0-2.866C17.098,43.574,17.843,43.574,18.587,43.568z
	 M18.586,27.742c0,0.961,0,1.922,0,2.886c-0.744,0.004-1.488,0.004-2.231,0c0-0.964,0-1.925,0-2.886
	C17.099,27.746,17.842,27.746,18.586,27.742z M16.354,26.671c0-0.955,0-1.91,0-2.865c0.743,0.002,1.487,0.002,2.23,0
	c0,0.955,0,1.91,0,2.865C17.842,26.675,17.099,26.675,16.354,26.671z M16.354,34.583c0-0.961,0-1.924,0-2.885
	c0.744,0.004,1.488,0.004,2.231,0c0,0.961,0,1.924,0,2.885C17.842,34.588,17.099,34.588,16.354,34.583z M18.586,35.656
	c0,0.961,0,1.924,0.001,2.885c-0.745,0.008-1.489,0.008-2.233,0c0-0.961,0-1.924,0-2.885C17.099,35.66,17.842,35.66,18.586,35.656z
	 M15.307,30.619c-0.742-0.01-1.484-0.021-2.227-0.039c0-0.957,0-1.916,0-2.875c0.742,0.014,1.485,0.023,2.226,0.029
	C15.307,28.695,15.307,29.656,15.307,30.619z M15.307,31.689c0,0.961,0,1.924,0,2.885c-0.742-0.012-1.485-0.025-2.227-0.047
	c0-0.959,0.001-1.92,0.001-2.877C13.822,31.667,14.565,31.68,15.307,31.689z M15.307,35.644c0,0.959,0,1.922-0.001,2.883
	c-0.742-0.012-1.485-0.031-2.228-0.056c0-0.959,0.001-1.918,0.001-2.877C13.821,35.617,14.564,35.633,15.307,35.644z M15.306,39.597
	c0,0.96,0,1.922,0,2.883c-0.742-0.016-1.486-0.037-2.228-0.064c0-0.959,0-1.916,0.001-2.877
	C13.82,39.564,14.563,39.585,15.306,39.597z M19.637,39.597c0.742-0.012,1.484-0.033,2.227-0.059c0,0.959,0,1.918,0,2.875
	c-0.741,0.029-1.483,0.052-2.227,0.064C19.637,41.519,19.637,40.559,19.637,39.597z M19.637,38.527c0-0.961,0-1.924,0-2.883
	c0.74-0.012,1.482-0.027,2.225-0.05c0,0.959,0,1.918,0.002,2.876C21.121,38.496,20.377,38.515,19.637,38.527z M19.637,34.572
	c0-0.961,0-1.922-0.002-2.883c0.741-0.01,1.483-0.021,2.225-0.039c0.002,0.957,0.002,1.916,0.002,2.875
	C21.119,34.547,20.376,34.564,19.637,34.572z M19.635,30.619c0-0.963,0-1.924,0-2.885c0.74-0.006,1.483-0.017,2.225-0.029
	c0,0.959,0,1.916,0,2.875C21.118,30.599,20.376,30.609,19.635,30.619z M19.633,26.666c0-0.955,0-1.909,0-2.864
	c0.741-0.005,1.483-0.013,2.227-0.021c0,0.951,0,1.903,0,2.856C21.118,26.65,20.375,26.66,19.633,26.666z M19.633,22.732
	c-0.001-0.963-0.001-1.924-0.001-2.885c0.741-0.002,1.483-0.006,2.226-0.012c0,0.959,0.002,1.918,0.002,2.877
	C21.116,22.72,20.374,22.728,19.633,22.732z M18.586,22.736c-0.744,0.002-1.487,0.002-2.23,0c0-0.963,0-1.924,0-2.887
	c0.743,0.002,1.487,0.002,2.23,0C18.586,20.813,18.586,21.773,18.586,22.736z M15.309,22.732c-0.742-0.004-1.483-0.012-2.226-0.02
	c0-0.959,0.001-1.918,0.001-2.877c0.742,0.006,1.484,0.01,2.226,0.012C15.31,20.808,15.309,21.769,15.309,22.732z M15.309,23.801
	c0,0.955,0,1.91,0,2.864c-0.742-0.006-1.483-0.016-2.227-0.027c0-0.953,0-1.906,0-2.859C13.825,23.789,14.566,23.796,15.309,23.801z
	 M12.036,26.617c-0.742-0.017-1.483-0.033-2.225-0.055c0-0.947,0-1.895,0.001-2.841c0.741,0.019,1.483,0.031,2.225,0.042
	C12.037,24.716,12.036,25.666,12.036,26.617z M12.035,27.683c0,0.957,0,1.916,0,2.873c-0.742-0.021-1.483-0.047-2.225-0.076
	c0-0.953,0-1.904,0-2.857C10.552,27.646,11.293,27.667,12.035,27.683z M12.035,31.621c0,0.957-0.001,1.914-0.001,2.871
	c-0.742-0.023-1.483-0.055-2.224-0.092c0-0.953,0-1.906,0-2.859C10.551,31.572,11.292,31.6,12.035,31.621z M12.033,35.56
	c0,0.956-0.001,1.914-0.001,2.871c-0.742-0.031-1.484-0.066-2.225-0.111c0-0.953,0.001-1.906,0.001-2.858
	C10.549,35.5,11.291,35.533,12.033,35.56z M12.031,39.498c0,0.955,0,1.914-0.001,2.869c-0.742-0.035-1.484-0.078-2.225-0.129
	c0-0.953,0-1.904,0.001-2.857C10.547,39.426,11.289,39.465,12.031,39.498z M12.03,43.435c0,0.951-0.001,1.901-0.001,2.854
	c-0.742-0.041-1.484-0.09-2.225-0.149c0-0.944,0.001-1.892,0.001-2.838C10.546,43.353,11.288,43.4,12.03,43.435z M13.077,43.482
	c0.743,0.031,1.486,0.053,2.228,0.067c0,0.956,0,1.91,0,2.864c-0.742-0.016-1.486-0.041-2.229-0.074
	C13.077,45.389,13.077,44.435,13.077,43.482z M15.305,47.486c0,0.961,0,1.922,0,2.883c-0.743-0.019-1.487-0.047-2.23-0.084
	c0-0.959,0-1.918,0.001-2.875C13.818,47.443,14.562,47.468,15.305,47.486z M16.353,47.504c0.745,0.009,1.49,0.009,2.234,0
	c0.001,0.96,0.001,1.924,0.001,2.883c-0.745,0.011-1.49,0.011-2.235,0C16.353,49.427,16.353,48.464,16.353,47.504z M19.639,47.486
	c0.741-0.018,1.483-0.043,2.227-0.076c0,0.957,0.002,1.916,0.002,2.875c-0.742,0.037-1.486,0.065-2.229,0.084
	C19.639,49.406,19.639,48.447,19.639,47.486z M19.637,46.414c0-0.954,0-1.908,0-2.864c0.742-0.015,1.484-0.036,2.229-0.067
	c0,0.953,0,1.905,0,2.857C21.122,46.373,20.379,46.398,19.637,46.414z M22.911,43.435c0.741-0.035,1.483-0.082,2.224-0.135
	c0,0.945,0,1.895,0.002,2.838c-0.74,0.059-1.482,0.107-2.226,0.15C22.911,45.336,22.911,44.386,22.911,43.435z M22.911,42.369
	c-0.001-0.957-0.001-1.914-0.002-2.871c0.741-0.032,1.483-0.069,2.225-0.117c0,0.954,0.001,1.906,0.001,2.857
	C24.395,42.289,23.652,42.333,22.911,42.369z M22.909,38.431c0-0.957-0.001-1.915-0.001-2.871c0.742-0.027,1.482-0.061,2.224-0.098
	c0.001,0.951,0.001,1.904,0.001,2.857C24.393,38.363,23.65,38.4,22.909,38.431z M22.908,34.494c0-0.957-0.002-1.916-0.002-2.871
	c0.742-0.021,1.482-0.051,2.225-0.079c0,0.952,0,1.903,0.001,2.856C24.391,34.437,23.648,34.468,22.908,34.494z M22.906,30.556
	c0-0.957,0-1.916-0.002-2.873c0.742-0.016,1.484-0.037,2.226-0.061c0,0.953,0.001,1.904,0.001,2.857
	C24.391,30.509,23.648,30.535,22.906,30.556z M22.904,26.617c0-0.951,0-1.901,0-2.854c0.74-0.011,1.482-0.025,2.224-0.042
	c0,0.946,0.001,1.894,0.001,2.841C24.389,26.583,23.646,26.601,22.904,26.617z M22.902,22.699c0-0.957,0-1.916,0-2.874
	c0.742-0.007,1.482-0.014,2.225-0.023c0.001,0.953,0.001,1.906,0.001,2.859C24.387,22.676,23.646,22.689,22.902,22.699z
	 M22.902,18.76C22.9,17.802,22.9,16.845,22.9,15.887c0.742,0,1.481-0.003,2.225-0.004c0.001,0.953,0.001,1.906,0.002,2.858
	C24.385,18.75,23.643,18.756,22.902,18.76z M21.855,18.767c-0.742,0.004-1.482,0.007-2.225,0.009c0-0.961,0-1.922,0-2.884
	c0.741,0,1.482-0.001,2.225-0.002C21.855,16.849,21.855,17.808,21.855,18.767z M18.585,18.779c-0.743,0.001-1.486,0.001-2.229,0
	c0-0.961,0-1.923,0-2.885c0.742,0,1.486,0,2.229,0C18.585,16.855,18.585,17.817,18.585,18.779z M15.31,18.777
	c-0.742-0.002-1.483-0.005-2.225-0.009c0-0.959,0-1.918,0-2.877c0.742,0,1.483,0.001,2.225,0.002
	C15.31,16.854,15.31,17.815,15.31,18.777z M12.039,18.76c-0.742-0.005-1.483-0.011-2.225-0.019c0-0.953,0-1.905,0.001-2.858
	c0.742,0.001,1.483,0.004,2.224,0.004C12.039,16.845,12.039,17.803,12.039,18.76z M12.039,19.827c0,0.957-0.001,1.915-0.001,2.872
	c-0.741-0.01-1.483-0.021-2.224-0.035c0-0.953,0-1.906,0-2.859C10.555,19.813,11.296,19.819,12.039,19.827z M8.768,22.64
	c-0.741-0.018-1.482-0.035-2.223-0.057c0-0.943,0-1.887,0-2.831c0.741,0.013,1.482,0.025,2.223,0.036
	C8.768,20.739,8.768,21.689,8.768,22.64z M8.767,23.697c0,0.944,0,1.89,0,2.832c-0.741-0.024-1.482-0.053-2.223-0.084
	c0-0.938,0-1.873,0-2.811C7.284,23.658,8.026,23.679,8.767,23.697z M8.766,27.587c0,0.949-0.001,1.898-0.001,2.85
	c-0.74-0.033-1.481-0.068-2.222-0.111c0-0.942,0-1.887,0-2.83C7.284,27.529,8.025,27.56,8.766,27.587z M8.765,31.494
	c0,0.951-0.001,1.9-0.001,2.852c-0.74-0.04-1.481-0.087-2.221-0.139c0-0.943,0-1.887,0-2.831C7.283,31.42,8.023,31.459,8.765,31.494
	z M8.763,35.404c0,0.949,0,1.899,0,2.851c-0.741-0.052-1.481-0.104-2.22-0.168c0-0.942,0-1.886,0-2.829
	C7.282,35.31,8.022,35.361,8.763,35.404z M8.762,39.312c0,0.949,0,1.899-0.001,2.852c-0.741-0.059-1.48-0.123-2.219-0.195
	c0-0.943,0-1.889,0-2.83C7.281,39.203,8.021,39.26,8.762,39.312z M8.76,43.219c0,0.944,0,1.888-0.001,2.832
	c-0.74-0.065-1.479-0.14-2.218-0.224c0-0.938,0-1.875,0-2.812C7.281,43.092,8.02,43.16,8.76,43.219z M8.759,47.109
	c0,0.951,0,1.9,0,2.851c-0.741-0.073-1.48-0.158-2.219-0.253c0-0.942,0-1.887,0-2.828C7.279,46.964,8.019,47.039,8.759,47.109z
	 M9.804,47.201c0.741,0.06,1.483,0.111,2.224,0.154c0,0.955,0,1.912,0,2.868c-0.742-0.045-1.484-0.103-2.225-0.166
	C9.804,49.107,9.804,48.154,9.804,47.201z M12.027,51.291c0,0.957,0,1.916,0,2.873c-0.742-0.053-1.484-0.114-2.225-0.188
	c0-0.951,0.001-1.904,0.001-2.857C10.544,51.187,11.285,51.244,12.027,51.291z M13.075,51.353c0.743,0.039,1.486,0.067,2.229,0.086
	c0,0.961,0,1.922,0,2.885c-0.743-0.021-1.487-0.053-2.229-0.094C13.075,53.269,13.075,52.312,13.075,51.353z M16.353,51.459
	c0.745,0.009,1.49,0.009,2.235,0c0,0.961,0,1.924,0,2.885c-0.745,0.013-1.491,0.013-2.235,0
	C16.353,53.382,16.353,52.42,16.353,51.459z M19.639,51.439c0.741-0.019,1.485-0.049,2.229-0.086c0,0.959,0,1.92,0.001,2.877
	c-0.743,0.041-1.485,0.072-2.229,0.094C19.639,53.361,19.639,52.4,19.639,51.439z M22.913,51.291
	c0.743-0.047,1.483-0.104,2.226-0.172c0,0.953,0,1.906,0,2.857c-0.74,0.073-1.481,0.135-2.224,0.188
	C22.914,53.205,22.914,52.248,22.913,51.291z M22.913,50.224c-0.001-0.956-0.001-1.912-0.001-2.869
	c0.742-0.043,1.484-0.095,2.225-0.154c0,0.953,0,1.906,0.002,2.857C24.396,50.123,23.654,50.179,22.913,50.224z M26.184,47.109
	c0.739-0.066,1.479-0.145,2.217-0.229c0,0.942,0,1.887,0,2.83c-0.736,0.092-1.478,0.177-2.217,0.252
	C26.184,49.009,26.184,48.06,26.184,47.109z M26.184,46.051c-0.002-0.944-0.002-1.888-0.002-2.832
	c0.739-0.06,1.48-0.127,2.219-0.202c0,0.938,0,1.873,0,2.811C27.662,45.912,26.923,45.986,26.184,46.051z M26.182,42.162
	c0-0.95-0.002-1.9-0.002-2.85c0.74-0.052,1.48-0.109,2.219-0.176c0.002,0.943,0.002,1.887,0.002,2.83
	C27.662,42.039,26.921,42.105,26.182,42.162z M26.18,38.253c0-0.95,0-1.9-0.002-2.852c0.742-0.041,1.482-0.093,2.221-0.146
	c0,0.942,0,1.887,0,2.829C27.66,38.15,26.92,38.203,26.18,38.253z M26.178,34.345c0-0.949,0-1.898,0-2.852
	c0.74-0.034,1.481-0.073,2.221-0.117c0,0.943,0,1.887,0,2.83C27.659,34.258,26.918,34.305,26.178,34.345z M26.177,30.437
	c0-0.949,0-1.9-0.001-2.85c0.741-0.027,1.481-0.059,2.221-0.092c0,0.943,0.002,1.888,0.002,2.83
	C27.659,30.367,26.918,30.404,26.177,30.437z M26.176,26.529c-0.001-0.942-0.001-1.888-0.001-2.832
	c0.742-0.018,1.482-0.039,2.222-0.063c0,0.938,0,1.873,0,2.811C27.657,26.476,26.917,26.503,26.176,26.529z M26.174,22.64
	c0-0.951-0.001-1.901-0.001-2.851c0.741-0.01,1.483-0.022,2.224-0.035c0,0.943,0,1.886,0,2.831
	C27.657,22.605,26.915,22.623,26.174,22.64z M8.769,15.881c0,0.95,0,1.9-0.001,2.85c-0.741-0.008-1.482-0.018-2.223-0.028
	c0-0.943,0-1.887,0-2.83C7.286,15.876,8.028,15.878,8.769,15.881z M6.54,50.758c0.738,0.097,1.478,0.183,2.218,0.258
	c0,0.95,0,1.901,0,2.853c-0.741-0.084-1.48-0.178-2.218-0.28C6.54,52.646,6.54,51.701,6.54,50.758z M26.184,53.869
	c0-0.95,0-1.899,0-2.853c0.739-0.075,1.479-0.163,2.217-0.259c0.002,0.941,0.002,1.889,0.002,2.83
	C27.663,53.693,26.925,53.785,26.184,53.869z"/&gt;
&lt;path id="highlight_2_" opacity="0.17" fill="#FFFFFF" enable-background="new    " d="M0,0.943h5.497c0,0,6.847-0.943,11.974-0.943
	C22.6,0,29.48,0.943,29.48,0.943h5.496v41.951c0,0-12.076-0.521-18.623-2.548C9.807,38.32,0,30.557,0,30.557V0.943z"/&gt;
&lt;/svg&gt;
</y:Resource>
      <y:Resource id="4" xml:space="preserve">&lt;?xml version="1.0" encoding="utf-8"?&gt;
&lt;svg version="1.1"
	 xmlns="http://www.w3.org/2000/svg" xmlns:xlink="http://www.w3.org/1999/xlink"
	 x="0px" y="0px" width="65px" height="53px" viewBox="-0.811 -0.063 65 53" enable-background="new -0.811 -0.063 65 53"
	 xml:space="preserve"&gt;
&lt;defs&gt;
&lt;/defs&gt;
&lt;linearGradient id="SVGID_1_" gradientUnits="userSpaceOnUse" x1="220.9624" y1="824.415" x2="220.9624" y2="801.0922" gradientTransform="matrix(1 0 0 1 -195.2002 -770.8008)"&gt;
	&lt;stop  offset="0.0319" style="stop-color:#808080"/&gt;
	&lt;stop  offset="0.1229" style="stop-color:#939393"/&gt;
	&lt;stop  offset="0.2702" style="stop-color:#ABABAB"/&gt;
	&lt;stop  offset="0.4266" style="stop-color:#BCBCBC"/&gt;
	&lt;stop  offset="0.5968" style="stop-color:#C6C6C6"/&gt;
	&lt;stop  offset="0.8061" style="stop-color:#C9C9C9"/&gt;
&lt;/linearGradient&gt;
&lt;path fill="url(#SVGID_1_)" d="M51.333,51.918c0.195,0.459-0.053,0.836-0.553,0.836H0.58c-0.5,0-0.604-0.272-0.232-0.605
	l8.023-7.191c0.373-0.334,1.086-0.605,1.586-0.605h37.255c0.498,0,1.065,0.377,1.265,0.836L51.333,51.918z"/&gt;
&lt;path fill="none" stroke="#8D8D8D" stroke-width="0.25" stroke-linecap="round" stroke-linejoin="round" stroke-miterlimit="10" d="
	M51.333,51.918c0.195,0.459-0.053,0.836-0.553,0.836H0.58c-0.5,0-0.604-0.272-0.232-0.605l8.023-7.191
	c0.373-0.334,1.086-0.605,1.586-0.605h37.255c0.498,0,1.065,0.377,1.265,0.836L51.333,51.918z"/&gt;
&lt;path fill="#717171" d="M32.117,50.571c0,0.25-0.205,0.454-0.455,0.454H4.024c-0.25,0-0.304-0.139-0.119-0.307l5.638-5.154
	c0.184-0.17,0.539-0.309,0.789-0.309h21.332c0.25,0,0.454,0.205,0.454,0.455L32.117,50.571L32.117,50.571z"/&gt;
&lt;path fill="#717171" d="M40.738,50.598c0.086,0.236,0.359,0.428,0.609,0.428h7.465c0.25,0,0.375-0.188,0.279-0.42l-2.049-4.93
	c-0.098-0.229-0.379-0.42-0.629-0.42h-7.17c-0.25,0-0.386,0.191-0.301,0.428L40.738,50.598z"/&gt;
&lt;path fill="#717171" d="M32.89,50.571c0,0.25,0.205,0.454,0.455,0.454h6.135c0.25,0,0.382-0.189,0.293-0.426l-0.156-0.409
	c-0.089-0.233-0.365-0.421-0.615-0.416l-1.045,0.021c-0.25,0.004-0.509-0.189-0.574-0.432l-0.021-0.082
	c-0.065-0.242-0.321-0.439-0.571-0.439h-1.316c-0.25,0-0.444,0.205-0.432,0.453l0.002,0.059c0.016,0.25-0.181,0.455-0.431,0.459
	l-1.269,0.021c-0.25,0.006-0.454,0.211-0.454,0.461L32.89,50.571L32.89,50.571z"/&gt;
&lt;path fill="#717171" d="M32.89,47.004c0,0.25,0.205,0.455,0.455,0.455h4.845c0.25,0,0.396-0.195,0.323-0.437l-0.402-1.333
	c-0.07-0.238-0.335-0.438-0.585-0.438h-4.181c-0.25,0-0.455,0.205-0.455,0.455V47.004z"/&gt;
&lt;linearGradient id="SVGID_2_" gradientUnits="userSpaceOnUse" x1="535.2017" y1="-1418.6563" x2="511.4634" y2="-1418.6563" gradientTransform="matrix(1 0 0 -1 -488 -1376.627)"&gt;
	&lt;stop  offset="0" style="stop-color:#4D4D4D"/&gt;
	&lt;stop  offset="1" style="stop-color:#999999"/&gt;
&lt;/linearGradient&gt;
&lt;path fill="url(#SVGID_2_)" d="M47.048,40.514c0,0.965-6.758,1.404-12.371,1.404c-3.889,0-10.914-0.348-11.367-1.267
	c0,0.446,0,1.502,0,1.661c0,0.725,4.803,1.234,11.357,1.234c6.554,0,12.381-0.643,12.381-1.361
	C47.048,42.028,47.048,40.977,47.048,40.514z"/&gt;
&lt;path fill="#808080" d="M35.179,39.307c6.556,0,11.869,0.584,11.869,1.307c0,0.721-5.313,1.42-11.869,1.42
	c-6.701,0-11.869-0.697-11.869-1.42S28.625,39.307,35.179,39.307z"/&gt;
&lt;linearGradient id="SVGID_3_" gradientUnits="userSpaceOnUse" x1="525.7661" y1="-1412.6865" x2="520.77" y2="-1412.6865" gradientTransform="matrix(1 0 0 -1 -488 -1376.627)"&gt;
	&lt;stop  offset="0" style="stop-color:#999999"/&gt;
	&lt;stop  offset="0.0417" style="stop-color:#8D8D8D"/&gt;
	&lt;stop  offset="0.1617" style="stop-color:#717171"/&gt;
	&lt;stop  offset="0.2821" style="stop-color:#5D5D5D"/&gt;
	&lt;stop  offset="0.4021" style="stop-color:#515151"/&gt;
	&lt;stop  offset="0.5212" style="stop-color:#4D4D4D"/&gt;
	&lt;stop  offset="0.6202" style="stop-color:#565656"/&gt;
	&lt;stop  offset="0.7817" style="stop-color:#6E6E6E"/&gt;
	&lt;stop  offset="0.9844" style="stop-color:#969696"/&gt;
	&lt;stop  offset="1" style="stop-color:#999999"/&gt;
&lt;/linearGradient&gt;
&lt;path fill="url(#SVGID_3_)" d="M37.734,40.896c0,0-1.477,0.096-2.498,0.096s-2.499-0.096-2.499-0.096v-9.768h4.997V40.896z"/&gt;
&lt;radialGradient id="SVGID_4_" cx="415.8687" cy="-1386.5146" r="24.0778" gradientTransform="matrix(1.15 0 0 -1 -453.4719 -1376.627)" gradientUnits="userSpaceOnUse"&gt;
	&lt;stop  offset="0" style="stop-color:#F2F2F2"/&gt;
	&lt;stop  offset="1" style="stop-color:#666666"/&gt;
&lt;/radialGradient&gt;
&lt;path fill="url(#SVGID_4_)" d="M9.453,2.122c0-1.1,0.9-2,2-2h48.246c1.1,0,2,0.9,2,2v30.073c0,1.101-0.9,2-2,2H11.453
	c-1.1,0-2-0.899-2-2V2.122z"/&gt;
&lt;path fill="none" stroke="#666666" stroke-width="0.2436" stroke-linecap="round" stroke-linejoin="round" stroke-miterlimit="10" d="
	M9.453,2.122c0-1.1,0.9-2,2-2h48.246c1.1,0,2,0.9,2,2v30.073c0,1.101-0.9,2-2,2H11.453c-1.1,0-2-0.899-2-2V2.122z"/&gt;
&lt;radialGradient id="SVGID_5_" cx="402.1509" cy="-1378.3662" r="53.3339" fx="444.1083" fy="-1385.5538" gradientTransform="matrix(1.1935 0 0 -1 -443.5655 -1376.627)" gradientUnits="userSpaceOnUse"&gt;
	&lt;stop  offset="0" style="stop-color:#4D4D4D"/&gt;
	&lt;stop  offset="1" style="stop-color:#999999"/&gt;
&lt;/radialGradient&gt;
&lt;path fill="url(#SVGID_5_)" d="M10.475,3.143c0-1.1,0.9-2,2-2h46.429c1.1,0,2,0.9,2,2v27.805c0,1.1-0.9,2-2,2H12.475
	c-1.1,0-2-0.9-2-2V3.143z"/&gt;
&lt;radialGradient id="SVGID_6_" cx="402.939" cy="-1378.4502" r="34.1874" gradientTransform="matrix(1.1923 0 0 -1 -443.8286 -1376.627)" gradientUnits="userSpaceOnUse"&gt;
	&lt;stop  offset="0" style="stop-color:#9CD7FF"/&gt;
	&lt;stop  offset="1" style="stop-color:#3C89C9"/&gt;
&lt;/radialGradient&gt;
&lt;path fill="url(#SVGID_6_)" d="M11.043,3.598c0-1.1,0.9-2,2-2h45.294c1.1,0,2,0.9,2,2v26.895c0,1.1-0.9,2-2,2H13.043
	c-1.1,0-2-0.9-2-2V3.598z"/&gt;
&lt;path opacity="0.24" fill="#F2F2F2" d="M11.043,24.936V3.598c0-1.1,0.9-2,2-2h45.294c1.1,0,2,0.9,2,2v13.539l-23.164,4.94
	c-1.064,0.273-2.836,0.547-3.935,0.609L11.043,24.936z"/&gt;
&lt;path fill="#C9C9C9" d="M58.777,46.596c-0.003-0.002-0.005-0.002-0.007,0c-0.188-0.061-0.429-0.254-0.702-0.482
	C58.335,46.268,58.578,46.436,58.777,46.596z"/&gt;
&lt;radialGradient id="SVGID_7_" cx="450.8638" cy="1259.1514" r="6.3766" gradientTransform="matrix(1 0 0 1 -390.4004 -1211.6016)" gradientUnits="userSpaceOnUse"&gt;
	&lt;stop  offset="0.1939" style="stop-color:#C9C9C9"/&gt;
	&lt;stop  offset="0.3299" style="stop-color:#C6C6C6"/&gt;
	&lt;stop  offset="0.4405" style="stop-color:#BCBCBC"/&gt;
	&lt;stop  offset="0.5421" style="stop-color:#ABABAB"/&gt;
	&lt;stop  offset="0.6378" style="stop-color:#939393"/&gt;
	&lt;stop  offset="0.697" style="stop-color:#808080"/&gt;
&lt;/radialGradient&gt;
&lt;path fill="url(#SVGID_7_)" d="M58.77,46.596c0.005,0.002,0.007,0.002,0.009,0.002c0.002,0.004,0.006,0.004,0.006,0.004
	c0.084,0.023,0.153,0.021,0.213-0.021c0.017-0.008,0.026-0.021,0.037-0.041c0.604-0.119,1.329-0.154,2.197-0.086
	c2.032,1.545,3.77,4.625,1.18,5.801c-2.048,0.929-3.543,0.783-4.722-0.485c-0.624-0.675-1.239-1.47-1.729-2.265
	C56.226,48.369,56.855,47.061,58.77,46.596z"/&gt;
&lt;radialGradient id="SVGID_8_" cx="603.5698" cy="1426.6348" r="3.8245" gradientTransform="matrix(0.9761 0.2173 -0.1478 0.6641 -320.0412 -1031.1759)" gradientUnits="userSpaceOnUse"&gt;
	&lt;stop  offset="0.1939" style="stop-color:#C9C9C9"/&gt;
	&lt;stop  offset="0.3739" style="stop-color:#C6C6C6"/&gt;
	&lt;stop  offset="0.5203" style="stop-color:#BCBCBC"/&gt;
	&lt;stop  offset="0.6549" style="stop-color:#ABABAB"/&gt;
	&lt;stop  offset="0.7816" style="stop-color:#939494"/&gt;
	&lt;stop  offset="0.8364" style="stop-color:#868787"/&gt;
&lt;/radialGradient&gt;
&lt;path fill="url(#SVGID_8_)" d="M55.96,49.504c-0.893-1.438-1.355-2.869-0.664-3.533c0.244-0.236,0.539-0.422,0.863-0.559
	c0.6,0.051,1.307,0.346,1.9,0.691c0.002,0,0.005,0.004,0.007,0.006c0.272,0.229,0.519,0.426,0.702,0.482
	C56.855,47.061,56.226,48.369,55.96,49.504z"/&gt;
&lt;radialGradient id="SVGID_9_" cx="448.7241" cy="1259.3271" r="3.928" gradientTransform="matrix(1 0 0 1 -390.4004 -1211.6016)" gradientUnits="userSpaceOnUse"&gt;
	&lt;stop  offset="0.1939" style="stop-color:#C9C9C9"/&gt;
	&lt;stop  offset="0.3496" style="stop-color:#C6C6C6"/&gt;
	&lt;stop  offset="0.4761" style="stop-color:#BCBCBC"/&gt;
	&lt;stop  offset="0.5925" style="stop-color:#ABABAB"/&gt;
	&lt;stop  offset="0.702" style="stop-color:#939393"/&gt;
	&lt;stop  offset="0.7697" style="stop-color:#808080"/&gt;
&lt;/radialGradient&gt;
&lt;path fill="url(#SVGID_9_)" d="M56.16,45.414c1.353-0.564,3.287-0.266,4.963,0.955c0.035,0.025,0.073,0.055,0.109,0.084
	c-0.867-0.068-1.818-0.033-2.427,0.086c-0.109-0.105-0.763-0.449-0.744-0.434C57.464,45.758,56.757,45.463,56.16,45.414z"/&gt;
&lt;path fill="none" stroke="#717171" stroke-width="0.1136" stroke-linecap="round" stroke-miterlimit="10" d="M56.16,45.414
	c1.353-0.564,3.287-0.266,4.963,0.955c0.035,0.025,0.073,0.055,0.109,0.084c2.032,1.545,3.77,4.627,1.18,5.801
	c-2.048,0.93-3.543,0.785-4.722-0.484c-0.624-0.676-1.239-1.471-1.729-2.264c-0.892-1.438-1.354-2.871-0.664-3.533
	C55.541,45.734,55.835,45.549,56.16,45.414z"/&gt;
&lt;path fill="none" stroke="#717171" stroke-width="0.1136" stroke-linecap="round" stroke-miterlimit="10" d="M58.777,46.596
	c0.083-0.021,0.168-0.041,0.258-0.057c0.604-0.119,1.329-0.154,2.197-0.086"/&gt;
&lt;path fill="none" stroke="#717171" stroke-width="0.1136" stroke-linecap="round" stroke-miterlimit="10" d="M55.958,49.516
	c0-0.002,0.002-0.008,0.002-0.012c0.269-1.135,0.896-2.441,2.813-2.908"/&gt;
&lt;path fill="none" stroke="#717171" stroke-width="0.1136" stroke-linecap="round" stroke-miterlimit="10" d="M58.061,46.105
	c-0.597-0.35-1.306-0.643-1.901-0.693"/&gt;
&lt;path fill="none" stroke="#717171" stroke-width="0.1136" stroke-linecap="round" stroke-miterlimit="10" d="M58.779,46.598
	c0-0.002,0-0.002-0.002-0.002c-0.199-0.16-0.441-0.328-0.709-0.482"/&gt;
&lt;path fill="#4D4D4D" d="M58.259,45.936c0.354,0.264,0.438,0.48,0.548,0.604c-0.091,0.018-0.173,0.033-0.259,0.059
	c-0.355-0.393-0.996-0.666-0.955-0.727C57.688,45.729,58.063,45.791,58.259,45.936z"/&gt;
&lt;/svg&gt;
</y:Resource>
    </y:Resources>
  </data>
</graphml>
